<svg xmlns="http://www.w3.org/2000/svg" viewBox="0 0 372.27 460.8">
  <path d="M346.79,266c-14.45-12.91-32.79-23.41-47.07-30.56-13-6.48-22.63-10.2-22.81-10.27-22.19-7.8-30.11-15.76-32.85-21.06l-1.11-3.2c-.32-1.12-.59-2.18-.85-3.2l-2.7-15.15-.07-.73a114.51,114.51,0,0,0,17.3-31.16l.55-.85c6.31-6.32,9.73-22.32,9.75-22.47,4.64-13,2.91-18.68,1.47-21l-.59-.94.34-1c.47-1.41,11.37-34.77-3.67-60.19l-.27-.67c0-.23-5.67-23.73-33.24-34.13C220.59,3.11,203.23,0,187.51,0l-1.37,0-1.38,0c-15.71,0-33.08,3.11-43.47,9.41-27.57,10.4-33.19,33.89-33.24,34.12l-.26.67c-15,25.42-4.15,58.78-3.68,60.19l.34,1-.58.93c-1.44,2.28-3.18,7.94,1.47,21,0,.16,3.44,16.15,9.76,22.47l.55.85A114.22,114.22,0,0,0,133,181.79l-.07.73-2.7,15.16c-.27,1-.53,2.07-.85,3.2l-1.11,3.19c-2.74,5.3-10.66,13.26-32.84,21.07-.19.07-9.82,3.79-22.83,10.26C58.27,242.55,39.94,253.05,25.49,266c-.31.23-27.68,20.94-25.35,76,.15,4,.46,8.13,1,12.47,0,4.39,1.4,7.92,9.88,10.57.56.21,49.92,17.65,121.22,24l-.7-.27c-9-3.43-15.53-9-19.29-16.49-2.85-5.71-5.29-15.05-.69-27.2l.1-.26.11-.26c12.73-31.54,39.84-48.91,76.33-48.91,44.3,0,75.24,26.65,75.24,64.81a63.69,63.69,0,0,1-5.51,26.74c61.62-7.34,103-22,103.49-22.16,8.46-2.63,9.88-6.16,9.88-10.56.51-4.34.81-8.47,1-12.47,2.34-55.09-25-75.79-25.34-76Z"/>
    <path d="M186.38,425.24h-9.12c-11.18,0-14.72,3.53-14.72,14.52v6.51c0,11,3.54,14.53,14.72,14.53h9.12c11.18,0,14.71-3.53,14.71-14.53v-6.51C201.09,428.77,197.54,425.24,186.38,425.24Z"/>
    <path d="M188.06,321.69c-28.87,0-44.33,13.22-52.15,32.59-2,5.4-.56,8,4.84,10.06l17.88,6.7a17.37,17.37,0,0,0,2,.57c.23.05.42.07.64.11.38.06.76.11,1.1.13l.24,0c.1,0,.17-.05.27-.05a4.69,4.69,0,0,0,1.28-.24l.39-.12a4.69,4.69,0,0,0,1.33-.94,3.33,3.33,0,0,0,.25-.28,10.29,10.29,0,0,0,1-1.35c.11-.17.23-.36.33-.55.39-.68.78-1.43,1.19-2.33,4.83-10.8,9.3-15.83,19.18-15.83,8.75,0,13,4.47,13,10.61,0,12.29-10.24,14.9-19.75,20.67-8,4.83-15.45,12.28-15.45,30,0,5.77,1.86,7.44,7.44,7.44H189.9c5.6,0,7.45-1.67,7.45-7.44,0-4.47,3-7.46,7.09-10.25,11.17-7.63,32.76-13.59,32.76-40.78,0-22.7-18-38.72-49.14-38.72Z"/>
</svg>
