<svg xmlns="http://www.w3.org/2000/svg" viewBox="0 0 235.99 42.21">
  <path d="M155.51,34.83,148.6,23.38h4.65l4.39,7.41L162,23.38h4.6l-7,11.56v7.2h-4.12V34.83M127,23.38h5.81l4.39,12.9h.05l4.15-12.9h5.81V42.14h-3.86V28.84h-.06l-4.6,13.3h-3.18L130.94,29h-.05V42.14H127Zm-14.46,8.48h4.52c1.87,0,2.84-.78,2.84-2.68s-1-2.6-2.84-2.6h-4.52Zm-4.12-8.48h10.11a5.16,5.16,0,0,1,5.5,5.17,4.57,4.57,0,0,1-3,4.7v.06c2,.55,2.6,2.47,2.73,4.39.08,1.18,0,3.41.79,4.44h-4.13a22.13,22.13,0,0,1-.65-4.5c-.29-2-1.06-2.83-3.13-2.83h-4.13v7.33h-4.12Zm-13,11.51h4.86L97.93,28h-.05Zm.4-11.51h4.23l7,18.76h-4.28L101.37,38h-7l-1.47,4.18H88.71ZM224,8.93h4.52c1.86,0,2.83-.79,2.83-2.68s-1-2.6-2.83-2.6H224ZM219.83.45H230a5.15,5.15,0,0,1,5.49,5.17,4.6,4.6,0,0,1-3,4.71v.05c2,.55,2.6,2.47,2.73,4.39.08,1.18,0,3.41.79,4.44h-4.12a22,22,0,0,1-.66-4.5c-.29-2-1.05-2.83-3.13-2.83H224v7.33h-4.13Zm-3.22,11.66c0,5.07-3,7.54-8,7.54s-8-2.41-8-7.54V.45h4.13V12.11c0,2.05.53,4.08,3.86,4.08,2.94,0,3.89-1.27,3.89-4.08V.45h4.13ZM186.81,16h4.42c1.6,0,3.05-.52,3.05-2.47s-1.19-2.68-3-2.68h-4.5Zm0-8H191c1.47,0,2.53-.66,2.53-2.23,0-1.76-1.37-2.16-2.84-2.16h-3.87ZM182.69.45h8.83c3.57,0,6,1.15,6,4.65A4.08,4.08,0,0,1,195,9a4.56,4.56,0,0,1,3.44,4.76c0,3.81-3.23,5.44-6.62,5.44h-9.09Zm-7.4,18.76V.45h4.13V19.21ZM160.35.45h4.13V15.74h9.14v3.47H160.35Zm-13,11.5h4.86l-2.36-6.88h-.06Zm.39-11.5H152l7,18.76h-4.28L153.29,15h-7l-1.47,4.18h-4.17Zm-11.11,6.3a4.09,4.09,0,0,0-4.1-3.28c-3.7,0-5.1,3.15-5.1,6.44,0,3.12,1.4,6.28,5.1,6.28,2.52,0,3.94-1.71,4.26-4.21h4c-.42,4.71-3.62,7.67-8.25,7.67-5.78,0-9.22-4.33-9.22-9.74,0-5.58,3.44-9.91,9.22-9.91,4.1,0,7.6,2.42,8.1,6.75Zm-24.1,2.63-6-8.93h4.79l3.67,6,3.81-6h4.52l-6,9,6.54,9.8h-4.91l-4.1-6.49-4.18,6.49H106ZM90.71.45h14V3.92H94.83v4h9.09v3.2H94.83v4.6H105v3.47H90.71Z" fill="#fff"/>
  <path d="M71.76,3.1h.54c.45,0,.86,0,.86-.55s-.37-.5-.72-.5h-.68V3.1m-.51-1.47h1.27c.79,0,1.16.31,1.16,1a.85.85,0,0,1-.87.89l.94,1.46H73.2l-.9-1.42h-.54V4.93h-.51Zm1.1,4.06a2.32,2.32,0,0,0,2.31-2.42,2.32,2.32,0,1,0-4.64,0A2.32,2.32,0,0,0,72.35,5.69Zm0-5.23a2.83,2.83,0,1,1-2.84,2.81A2.81,2.81,0,0,1,72.35.46Z" fill="#fff"/>
  <path d="M37.05,25l-4.4-7.83H9.91V8.81H37.05L32.35.46H9.91L0,9.86v23l9.91,9.39H37.05l-4.7-8.35H9.91V25H37.05m41.43,7.86L62,.46H49.78L37.05,25H47.12L55.89,8.31l13,25.55H41.74l-4.69,8.35H68.57Z" fill="#fff"/>
</svg>
