<svg width="0" height="0" class="hidden">
	<symbol id="logo" xmlns="http://www.w3.org/2000/svg" viewBox="0 0 235.99 42.21">
		<path id="logo-ea-text" d="M155.51,34.83,148.6,23.38h4.65l4.39,7.41L162,23.38h4.6l-7,11.56v7.2h-4.12V34.83M127,23.38h5.81l4.39,12.9h.05l4.15-12.9h5.81V42.14h-3.86V28.84h-.06l-4.6,13.3h-3.18L130.94,29h-.05V42.14H127Zm-14.46,8.48h4.52c1.87,0,2.84-.78,2.84-2.68s-1-2.6-2.84-2.6h-4.52Zm-4.12-8.48h10.11a5.16,5.16,0,0,1,5.5,5.17,4.57,4.57,0,0,1-3,4.7v.06c2,.55,2.6,2.47,2.73,4.39.08,1.18,0,3.41.79,4.44h-4.13a22.13,22.13,0,0,1-.65-4.5c-.29-2-1.06-2.83-3.13-2.83h-4.13v7.33h-4.12Zm-13,11.51h4.86L97.93,28h-.05Zm.4-11.51h4.23l7,18.76h-4.28L101.37,38h-7l-1.47,4.18H88.71ZM224,8.93h4.52c1.86,0,2.83-.79,2.83-2.68s-1-2.6-2.83-2.6H224ZM219.83.45H230a5.15,5.15,0,0,1,5.49,5.17,4.6,4.6,0,0,1-3,4.71v.05c2,.55,2.6,2.47,2.73,4.39.08,1.18,0,3.41.79,4.44h-4.12a22,22,0,0,1-.66-4.5c-.29-2-1.05-2.83-3.13-2.83H224v7.33h-4.13Zm-3.22,11.66c0,5.07-3,7.54-8,7.54s-8-2.41-8-7.54V.45h4.13V12.11c0,2.05.53,4.08,3.86,4.08,2.94,0,3.89-1.27,3.89-4.08V.45h4.13ZM186.81,16h4.42c1.6,0,3.05-.52,3.05-2.47s-1.19-2.68-3-2.68h-4.5Zm0-8H191c1.47,0,2.53-.66,2.53-2.23,0-1.76-1.37-2.16-2.84-2.16h-3.87ZM182.69.45h8.83c3.57,0,6,1.15,6,4.65A4.08,4.08,0,0,1,195,9a4.56,4.56,0,0,1,3.44,4.76c0,3.81-3.23,5.44-6.62,5.44h-9.09Zm-7.4,18.76V.45h4.13V19.21ZM160.35.45h4.13V15.74h9.14v3.47H160.35Zm-13,11.5h4.86l-2.36-6.88h-.06Zm.39-11.5H152l7,18.76h-4.28L153.29,15h-7l-1.47,4.18h-4.17Zm-11.11,6.3a4.09,4.09,0,0,0-4.1-3.28c-3.7,0-5.1,3.15-5.1,6.44,0,3.12,1.4,6.28,5.1,6.28,2.52,0,3.94-1.71,4.26-4.21h4c-.42,4.71-3.62,7.67-8.25,7.67-5.78,0-9.22-4.33-9.22-9.74,0-5.58,3.44-9.91,9.22-9.91,4.1,0,7.6,2.42,8.1,6.75Zm-24.1,2.63-6-8.93h4.79l3.67,6,3.81-6h4.52l-6,9,6.54,9.8h-4.91l-4.1-6.49-4.18,6.49H106ZM90.71.45h14V3.92H94.83v4h9.09v3.2H94.83v4.6H105v3.47H90.71Z"/>
		<path id="logo-ea-copyright" d="M71.76,3.1h.54c.45,0,.86,0,.86-.55s-.37-.5-.72-.5h-.68V3.1m-.51-1.47h1.27c.79,0,1.16.31,1.16,1a.85.85,0,0,1-.87.89l.94,1.46H73.2l-.9-1.42h-.54V4.93h-.51Zm1.1,4.06a2.32,2.32,0,0,0,2.31-2.42,2.32,2.32,0,1,0-4.64,0A2.32,2.32,0,0,0,72.35,5.69Zm0-5.23a2.83,2.83,0,1,1-2.84,2.81A2.81,2.81,0,0,1,72.35.46Z"/>
		<path id="logo-ea-symbol" d="M37.05,25l-4.4-7.83H9.91V8.81H37.05L32.35.46H9.91L0,9.86v23l9.91,9.39H37.05l-4.7-8.35H9.91V25H37.05m41.43,7.86L62,.46H49.78L37.05,25H47.12L55.89,8.31l13,25.55H41.74l-4.69,8.35H68.57Z"/>	</symbol>

	<symbol id="icon-info" xmlns="http://www.w3.org/2000/svg" viewBox="0 0 111.58 111.58">
		<path d="M79,99.54l-1.56,6.37c-4.67,1.84-8.41,3.25-11.19,4.22a29.52,29.52,0,0,1-9.71,1.45q-8.49,0-13.21-4.15a13.4,13.4,0,0,1-4.71-10.52,36.7,36.7,0,0,1,.35-5.06c.24-1.73.62-3.67,1.14-5.85l5.85-20.69c.52-2,1-3.85,1.31-5.63a24.39,24.39,0,0,0,.53-4.85c0-2.64-.54-4.49-1.63-5.53S43,47.74,39.88,47.74a16.32,16.32,0,0,0-4.65.71c-1.59.47-2.95.93-4.09,1.35l1.56-6.38q5.74-2.34,11-4a32.91,32.91,0,0,1,9.94-1.67q8.43,0,13,4.08a13.51,13.51,0,0,1,4.57,10.59c0,.9-.1,2.48-.32,4.75a31.77,31.77,0,0,1-1.17,6.23L63.9,84c-.47,1.65-.9,3.55-1.28,5.68a29.48,29.48,0,0,0-.56,4.81c0,2.74.61,4.6,1.83,5.6s3.35,1.48,6.37,1.48a18.5,18.5,0,0,0,4.81-.74A28.11,28.11,0,0,0,79,99.54ZM80.44,13a12.06,12.06,0,0,1-4.07,9.18A13.87,13.87,0,0,1,66.56,26a14,14,0,0,1-9.85-3.79A12,12,0,0,1,52.6,13a12.17,12.17,0,0,1,4.11-9.21,14.56,14.56,0,0,1,19.66,0A12.2,12.2,0,0,1,80.44,13Z"/>
	</symbol>

	<symbol id="icon-star" xmlns="http://www.w3.org/2000/svg" viewBox="0 0 512 512">
		<path d="M511.27,197.26a15,15,0,0,0-12.11-10.21L340.44,164l-71-143.82a15,15,0,0,0-26.9,0L171.56,164,12.84,187.05a15,15,0,0,0-8.31,25.58l114.85,112L92.27,482.67A15,15,0,0,0,114,498.48l142-74.64,142,74.64a15,15,0,0,0,21.77-15.81L392.61,324.59l114.86-112A15,15,0,0,0,511.27,197.26Z"/>
	</symbol>

	<symbol id="icon-files" xmlns="http://www.w3.org/2000/svg" viewBox="0 0 974.9 974.9">
		<path d="M974.57,292.3a30,30,0,0,0-30-30H738.27a30,30,0,0,1-30-30V30a30,30,0,0,0-30-30H463.07a44.94,44.94,0,0,0-45,45V201.8a15.93,15.93,0,0,1,1.3,1.3l175.1,175.1a73.92,73.92,0,0,1,21.8,52.7h.1V734.1h313.1a44.94,44.94,0,0,0,45-45V292.3Z"/>
		<path d="M795.07,4.5c-9.4-9.4-25.6-2.8-25.6,10.6V190.2a15,15,0,0,0,15,15h175.1c13.4,0,20.1-16.2,10.6-25.6Z"/>
		<path d="M45.27,974.9h466.5a44.94,44.94,0,0,0,45-45V537.1a30,30,0,0,0-30-30H321.57a30,30,0,0,1-30-30V270.8a30,30,0,0,0-30-30H45.27c-24.9,0-45,20.1-45,36V920.9a68.59,68.59,0,0,0,4,24C11.37,964,27.07,974.9,45.27,974.9Z"/>
		<path d="M366.67,445.9h175.1a15,15,0,0,0,15-15,14.75,14.75,0,0,0-4.4-10.6L418.07,285.9l-40.7-40.7a14.53,14.53,0,0,0-10.5-4.4,15,15,0,0,0-15.1,15V430.9h0A14.9,14.9,0,0,0,366.67,445.9Z"/>
	</symbol>

	<symbol id="icon-arrow-down" xmlns="http://www.w3.org/2000/svg" viewBox="0 0 383.93 512">
		<polygon points="383.93 303.62 361.45 283.75 206.97 458.51 206.97 0 176.97 0 176.97 458.51 22.48 283.75 0 303.62 184.21 512 199.73 512 383.93 303.62"/>
	</symbol>

	<symbol id="icon-search" xmlns="http://www.w3.org/2000/svg" viewBox="0 0 250.3 250.3">
		<path d="M244.2,214.6l-54.4-54.4c-.3-.3-.6-.5-.9-.8a102.49,102.49,0,1,0-29.4,29.5c.3.3.5.6.8.9l54.4,54.4a20.9,20.9,0,1,0,29.5-29.6ZM102.9,170.1a67.2,67.2,0,1,1,67.2-67.2A67.22,67.22,0,0,1,102.9,170.1Z"/>
	</symbol>

	<symbol id="icon-home" xmlns="http://www.w3.org/2000/svg" viewBox="0 0 27.02 27.02">
		<path d="M3.67,24.88a.56.56,0,0,0,.57.6h6.81V19.89S11,19,11.86,19h2.82a.88.88,0,0,1,1,.92l0,5.56h6.67a.7.7,0,0,0,.72-.75V14.41l-9.4-8.36-10,8.36Z"/>
		<path d="M0,13.63s.85,1.57,2.69,0l11-9.33,10.35,9.28c2.14,1.54,2.94,0,2.94,0l-13.29-12Z"/>
		<polygon points="23.83 4.28 21.17 4.28 21.18 7.5 23.83 9.75 23.83 4.28"/>
	</symbol>

	<symbol id="icon-user" xmlns="http://www.w3.org/2000/svg" viewBox="0 0 460.8 460.8">
		<path d="M230.43,0C164.6,0,110.79,53.81,110.79,119.64S164.6,239.28,230.43,239.28s119.64-53.81,119.64-119.64S296.26,0,230.43,0Z"/>
		<path d="M435.76,334.89a111.75,111.75,0,0,0-12-21.94c-24-35.53-61.13-59-102.92-64.79-5.23-.52-11,.53-15.15,3.66a127.51,127.51,0,0,1-150.47,0,19.65,19.65,0,0,0-15.15-3.66A147.63,147.63,0,0,0,37.13,313a129.23,129.23,0,0,0-12,21.94c-1.57,3.14-1,6.79.52,9.93a209.4,209.4,0,0,0,14.11,20.9,198.81,198.81,0,0,0,24,27.16c7.32,7.32,15.68,14.11,24,20.9a238.25,238.25,0,0,0,284.21,0,228.51,228.51,0,0,0,24-20.9,241.17,241.17,0,0,0,24-27.16,183.64,183.64,0,0,0,14.11-20.9C436.8,341.68,437.32,338,435.76,334.89Z"/>
	</symbol>

	<symbol id="icon-map" xmlns="http://www.w3.org/2000/svg" viewBox="0 0 512 512">
		<path d="M192,416l128,64V96L192,32Z"/>
		<path d="M32,480l128-64V32L32,96Z"/>
		<path d="M352,96V480l128-64V32Z"/>
	</symbol>

	<symbol id="icon-link-external" xmlns="http://www.w3.org/2000/svg" viewBox="0 0 283.18 283.18">
		<path d="M254.81,140.71h-20a7.5,7.5,0,0,0-7.5,7.5V239.4a8.79,8.79,0,0,1-8.78,8.78H43.78A8.79,8.79,0,0,1,35,239.4V64.64a8.79,8.79,0,0,1,8.78-8.78h95.85a7.5,7.5,0,0,0,7.5-7.5v-20a7.5,7.5,0,0,0-7.5-7.5H43.78A43.83,43.83,0,0,0,0,64.64V239.4a43.83,43.83,0,0,0,43.78,43.78H218.53a43.83,43.83,0,0,0,43.78-43.78V148.21A7.5,7.5,0,0,0,254.81,140.71Z"/>
		<path d="M275.68,0H196.12a7.5,7.5,0,0,0-7.5,7.5v20a7.5,7.5,0,0,0,7.5,7.5h27.31L120.68,137.74a7.5,7.5,0,0,0,0,10.61l14.14,14.14a7.5,7.5,0,0,0,10.61,0L248.18,59.75v27.3a7.5,7.5,0,0,0,7.5,7.5h20a7.5,7.5,0,0,0,7.5-7.5V7.5A7.5,7.5,0,0,0,275.68,0Z"/>
	</symbol>

	<symbol id="icon-user-question" xmlns="http://www.w3.org/2000/svg" viewBox="0 0 372.27 460.8">
		<path d="M346.79,266c-14.45-12.91-32.79-23.41-47.07-30.56-13-6.48-22.63-10.2-22.81-10.27-22.19-7.8-30.11-15.76-32.85-21.06l-1.11-3.2c-.32-1.12-.59-2.18-.85-3.2l-2.7-15.15-.07-.73a114.51,114.51,0,0,0,17.3-31.16l.55-.85c6.31-6.32,9.73-22.32,9.75-22.47,4.64-13,2.91-18.68,1.47-21l-.59-.94.34-1c.47-1.41,11.37-34.77-3.67-60.19l-.27-.67c0-.23-5.67-23.73-33.24-34.13C220.59,3.11,203.23,0,187.51,0l-1.37,0-1.38,0c-15.71,0-33.08,3.11-43.47,9.41-27.57,10.4-33.19,33.89-33.24,34.12l-.26.67c-15,25.42-4.15,58.78-3.68,60.19l.34,1-.58.93c-1.44,2.28-3.18,7.94,1.47,21,0,.16,3.44,16.15,9.76,22.47l.55.85A114.22,114.22,0,0,0,133,181.79l-.07.73-2.7,15.16c-.27,1-.53,2.07-.85,3.2l-1.11,3.19c-2.74,5.3-10.66,13.26-32.84,21.07-.19.07-9.82,3.79-22.83,10.26C58.27,242.55,39.94,253.05,25.49,266c-.31.23-27.68,20.94-25.35,76,.15,4,.46,8.13,1,12.47,0,4.39,1.4,7.92,9.88,10.57.56.21,49.92,17.65,121.22,24l-.7-.27c-9-3.43-15.53-9-19.29-16.49-2.85-5.71-5.29-15.05-.69-27.2l.1-.26.11-.26c12.73-31.54,39.84-48.91,76.33-48.91,44.3,0,75.24,26.65,75.24,64.81a63.69,63.69,0,0,1-5.51,26.74c61.62-7.34,103-22,103.49-22.16,8.46-2.63,9.88-6.16,9.88-10.56.51-4.34.81-8.47,1-12.47,2.34-55.09-25-75.79-25.34-76Z"/>
		<path d="M186.38,425.24h-9.12c-11.18,0-14.72,3.53-14.72,14.52v6.51c0,11,3.54,14.53,14.72,14.53h9.12c11.18,0,14.71-3.53,14.71-14.53v-6.51C201.09,428.77,197.54,425.24,186.38,425.24Z"/>
		<path d="M188.06,321.69c-28.87,0-44.33,13.22-52.15,32.59-2,5.4-.56,8,4.84,10.06l17.88,6.7a17.37,17.37,0,0,0,2,.57c.23.05.42.07.64.11.38.06.76.11,1.1.13l.24,0c.1,0,.17-.05.27-.05a4.69,4.69,0,0,0,1.28-.24l.39-.12a4.69,4.69,0,0,0,1.33-.94,3.33,3.33,0,0,0,.25-.28,10.29,10.29,0,0,0,1-1.35c.11-.17.23-.36.33-.55.39-.68.78-1.43,1.19-2.33,4.83-10.8,9.3-15.83,19.18-15.83,8.75,0,13,4.47,13,10.61,0,12.29-10.24,14.9-19.75,20.67-8,4.83-15.45,12.28-15.45,30,0,5.77,1.86,7.44,7.44,7.44H189.9c5.6,0,7.45-1.67,7.45-7.44,0-4.47,3-7.46,7.09-10.25,11.17-7.63,32.76-13.59,32.76-40.78,0-22.7-18-38.72-49.14-38.72Z"/>
	</symbol>

	<symbol id="icon-phone" xmlns="http://www.w3.org/2000/svg" viewBox="0 0 425.2 425.2">
		<path d="M103.49,268.65l41.28,41.28L309.93,144.77l-41.28-41.28L372.15,0s49.45,45.5,52.78,81.58C429.38,129.89,378.25,217.71,298,298s-168.09,131.4-216.4,127C45.5,421.6,0,372.15,0,372.15Z"/>
		<path d="M39.36,188.88h-28C11.32,91,91,11.32,188.88,11.32v28C106.43,39.36,39.36,106.43,39.36,188.88Z"/>
		<path d="M104.77,188.88h-28A112.26,112.26,0,0,1,188.88,76.74v28A84.2,84.2,0,0,0,104.77,188.88Z"/>
	</symbol>

	<symbol id="icon-weather-sun-cloud" xmlns="http://www.w3.org/2000/svg" viewBox="0 0 397.4 397.4">
		<path d="M141.85,79.94a4.2,4.2,0,0,0,1,3.13,4.64,4.64,0,0,0,.49.5l.19.17,21.78,22a4.28,4.28,0,0,0,6.05-6l-22-22.21a4.28,4.28,0,0,0-7.54,2.37Z"/>
		<path d="M356.78,78.72a4.22,4.22,0,0,0-2.9-1.52l-.39,0a4.26,4.26,0,0,0-2.74,1,3.94,3.94,0,0,0-.5.5l-.17.18-22.3,22a4.22,4.22,0,0,0-1.52,2.9,4.28,4.28,0,0,0,7,3.66,4.64,4.64,0,0,0,.5-.49l.17-.18,22.31-22A4.28,4.28,0,0,0,356.78,78.72Z"/>
		<path d="M208.46,40.72a4.26,4.26,0,0,0-.6,3.2c0,.12.06.25.1.37l0,.11,8,30.22a4.24,4.24,0,0,0,7.7,1.43,4.17,4.17,0,0,0,.59-3.19h0a2.37,2.37,0,0,0-.09-.36l0-.12-8-30.23A4.25,4.25,0,0,0,212,38.79a3.77,3.77,0,0,0-.88.1A4.15,4.15,0,0,0,208.46,40.72Z"/>
		<path d="M280.38,107.41l-.2-.08A80.41,80.41,0,0,0,181,142l-1.16,2-2.25-.63A91.3,91.3,0,0,0,61.73,231.6v6.56l-2.78.2a60.21,60.21,0,0,0-55.8,64.31,60.5,60.5,0,0,0,59.61,55.94H271.07a75.76,75.76,0,0,0,53.54-129.36c-1.31-1.31-2.7-2.62-4.11-3.88l-1.79-1.6,2.36-4.26a84.85,84.85,0,0,0,3.85-8.11A80.09,80.09,0,0,0,280.38,107.41Zm56.25,159.72a67.27,67.27,0,0,1-65.43,82.92H63a51.72,51.72,0,0,1-44.62-77.72l-4.63,2.27,12.65-12.71a51.86,51.86,0,0,1,36.46-15.12h3.59a4.2,4.2,0,0,0,3.07-1A4.15,4.15,0,0,0,71,242.83a4,4,0,0,0-.06-1.09l0-.23c-.16-1.42-.3-3-.41-4.66v-5.28a82.76,82.76,0,0,1,164.44-12.2,4.28,4.28,0,0,0,4.82,3.64,4.17,4.17,0,0,0,1.28-.41,67.46,67.46,0,0,1,95.64,44.53ZM317,208.24a73.3,73.3,0,0,1-3.23,6.74v5.08l-4.5-2.62a75.71,75.71,0,0,0-63.65-5.85l-3.11,1.12-.81-3.21a91.22,91.22,0,0,0-23.08-41.4l-1.53-1.58,1-1.93a36.79,36.79,0,0,1,45.65-16.85,4.24,4.24,0,0,0,3.11-7.86,44.94,44.94,0,0,0-54.81,18l-1.74,2.77-2.61-2a91.77,91.77,0,0,0-17-10.11l-3.1-1.42,1.79-2.89a71.8,71.8,0,0,1,34.81-29,71.5,71.5,0,0,1,92.77,93Z"/>
		<path d="M361.44,159.55l30-8a4.24,4.24,0,0,0-2.12-8.2l-30,8a4.23,4.23,0,1,0,2.1,8.2Z"/>
		<path d="M355.88,213.77a4.16,4.16,0,0,0,.37,3.24,4.21,4.21,0,0,0,2.55,2l30,8.19a4.26,4.26,0,1,0,2.4-8.17l-30-8.2a4.28,4.28,0,0,0-1.22-.17,4.25,4.25,0,0,0-4.08,3.08Z"/>
		<path d="M283.66,42.47l-8.19,30a4.24,4.24,0,0,0,2.83,5.34l.24.07A4.22,4.22,0,0,0,283.8,75l0-.14,8-30a4.28,4.28,0,0,0-2.9-5.33h0a4.36,4.36,0,0,0-1.18-.16,4.27,4.27,0,0,0-2.06.53A4.21,4.21,0,0,0,283.66,42.47Z"/>
	</symbol>

	<symbol id="icon-mail" xmlns="http://www.w3.org/2000/svg" viewBox="0 0 425.2 307.37">
		<polygon points="425.2 285.65 425.2 21.73 278.59 153.69 425.2 285.65"/>
		<polygon points="212.6 213.09 170.74 175.41 24.14 307.37 401.06 307.37 254.46 175.41 212.6 213.09"/>
		<polygon points="401.06 0 24.14 0 212.6 169.64 401.06 0"/>
		<polygon points="0 21.73 0 285.65 146.61 153.69 0 21.73"/>
	</symbol>

	<symbol id="icon-users" xmlns="http://www.w3.org/2000/svg" viewBox="0 0 512.01 512.01">
		<circle cx="256" cy="64" r="64"/>
		<path d="M351.87,302,337.34,188.8a31.87,31.87,0,0,0-31.8-28.8H288a16.11,16.11,0,0,0-11.33,4.68L256,185.35l-20.67-20.67A16.12,16.12,0,0,0,224,160H206.49a31.8,31.8,0,0,0-31.8,28.39L160.13,302A16,16,0,0,0,176,320h17.28l13.37,163.2A31.89,31.89,0,0,0,238.49,512h35.05a32,32,0,0,0,31.87-29.08L318.75,320H336a15.94,15.94,0,0,0,12-5.44A15.74,15.74,0,0,0,351.87,302Z"/>
		<circle cx="416" cy="64" r="64"/>
		<path d="M96,0a64,64,0,1,0,64,64A64.07,64.07,0,0,0,96,0Z"/>
		<path d="M511.87,302,497.34,188.84A31.85,31.85,0,0,0,465.54,160H448a16.11,16.11,0,0,0-11.33,4.68L416,185.35l-20.67-20.67A16.09,16.09,0,0,0,384,160H366.49c-2,0-3.77.71-5.66,1.06,4.13,7.3,7.36,15.2,8.32,24.06l14.5,112.77a47.86,47.86,0,0,1-11.72,37.95c-4.35,5-9.92,8.52-15.87,11.27l10.63,104.1A31.87,31.87,0,0,0,398.53,480h35a32,32,0,0,0,31.87-29.08L478.75,320H496a15.94,15.94,0,0,0,12-5.44A15.74,15.74,0,0,0,511.87,302Z"/>
		<path d="M140,335.68A47.9,47.9,0,0,1,128.38,298l14.56-113.64c.83-8.51,4-16.19,8-23.29-1.79-.32-3.49-1-5.38-1H128a16.11,16.11,0,0,0-11.33,4.68L96,185.35,75.33,164.68A16.11,16.11,0,0,0,64,160H46.49a31.8,31.8,0,0,0-31.8,28.39L.13,302A16,16,0,0,0,16,320H33.28L46.65,451.2A31.88,31.88,0,0,0,78.49,480h35a32,32,0,0,0,31.88-29.08L156,347.08A48.06,48.06,0,0,1,140,335.68Z"/>
	</symbol>

	<symbol id="icon-bulb" xmlns="http://www.w3.org/2000/svg" viewBox="0 0 512 512">
		<path d="M256,73.75a16,16,0,0,1-16-16V16a16,16,0,0,1,32,0V57.75A16,16,0,0,1,256,73.75Z"/>
		<path d="M396.18,131.82a16,16,0,0,1-11.31-27.33L414.4,75A16,16,0,0,1,437,97.6l-29.52,29.53A16.07,16.07,0,0,1,396.18,131.82Z"/>
		<path d="M496,272H454.25a16,16,0,0,1,0-32H496a16,16,0,0,1,0,32Z"/>
		<path d="M425.71,441.71A15.86,15.86,0,0,1,414.4,437l-29.53-29.52a16,16,0,0,1,22.64-22.64L437,414.38a16,16,0,0,1-11.32,27.33Z"/>
		<path d="M86.29,441.71A16,16,0,0,1,75,414.38l29.52-29.53a16,16,0,1,1,22.64,22.64L97.62,437A15.94,15.94,0,0,1,86.29,441.71Z"/>
		<path d="M57.75,272H16a16,16,0,0,1,0-32H57.75a16,16,0,0,1,0,32Z"/>
		<path d="M115.82,131.82a15.91,15.91,0,0,1-11.31-4.69L75,97.6A16,16,0,0,1,97.62,75l29.53,29.52a16,16,0,0,1-11.33,27.33Z"/>
		<path d="M320,448v26.67A37.51,37.51,0,0,1,282.67,512H229.33C211.41,512,192,498.35,192,468.48V448Z"/>
		<path d="M350.08,140A149.87,149.87,0,0,0,224,110.08c-56.53,11.73-102.4,57.81-114.13,114.35-12,58,9.81,115.62,56.32,150.82,12.58,9.39,21.33,23.9,24.32,40.75v.21A3.64,3.64,0,0,1,192,416H320a2,2,0,0,1,1.07.21V416c3-16.21,12.58-31.15,27.3-42.67A149.41,149.41,0,0,0,350.08,140ZM336,266.67a16.12,16.12,0,0,1-16-16A58.63,58.63,0,0,0,261.33,192a16,16,0,1,1,0-32A90.87,90.87,0,0,1,352,250.67,16.12,16.12,0,0,1,336,266.67Z"/>
		<path d="M190.51,416H192a3.64,3.64,0,0,0-1.49.21Z"/>
		<path d="M321.07,416v.21A2,2,0,0,0,320,416Z"/>
	</symbol>

	<symbol id="icon-utensils" xmlns="http://www.w3.org/2000/svg" viewBox="0 0 489.77 489.77">
		<path d="M155.18,305.65c-2.08.17-4.15.26-6.24.26a73.34,73.34,0,0,1-16.65-2.08L6.83,429.29a15.77,15.77,0,0,0,0,22.29L39.3,484.06a15.76,15.76,0,0,0,22.28,0L212.37,333.3l-28-30.15Z"/>
		<path d="M485.35,104.65a15.06,15.06,0,0,0-21.31,0L382.74,186a19.68,19.68,0,0,1-27.85-27.81l80.9-80.88a15.67,15.67,0,1,0-22.16-22.17L332.76,136a19.68,19.68,0,0,1-27.84-27.81l81.29-81.29A15.09,15.09,0,0,0,364.87,5.53L273.41,97c-22,22-28.93,52.89-21.81,81l61.31,61.31c28.1,7.1,59,.15,81-21.84L485.34,126A15.07,15.07,0,0,0,485.35,104.65Z"/>
		<path d="M41.09,13.79A16.6,16.6,0,0,0,29.37,8.94a17.07,17.07,0,0,0-2.77.23A16.56,16.56,0,0,0,14.43,18.3,144.52,144.52,0,0,0,42.32,183.42l77.81,77.79A40.68,40.68,0,0,0,149,273.15c1.15,0,2.3,0,3.45-.14l45.17-3.86,197,212.49A16.6,16.6,0,0,0,406.4,487h.29a16.71,16.71,0,0,0,11.77-4.85l33.73-33.74a16.61,16.61,0,0,0,0-23.47Z"/>
	</symbol>

	<symbol id="icon-copy" xmlns="http://www.w3.org/2000/svg" viewBox="0 0 24 24">
		<svg xmlns="http://www.w3.org/2000/svg" class="icon icon-tabler icon-tabler-copy" width="24" height="24" viewBox="0 0 24 24" stroke-width="1" fill="none" stroke-linecap="round" stroke-linejoin="round">
			<path stroke="none" d="M0 0h24v24H0z" fill="none"/>
			<rect x="8" y="8" width="12" height="12" rx="2" />
			<path d="M16 8v-2a2 2 0 0 0 -2 -2h-8a2 2 0 0 0 -2 2v8a2 2 0 0 0 2 2h2" />
		</svg>
	</symbol>

	<symbol id="icon-search" xmlns="http://www.w3.org/2000/svg" viewBox="0 0 24 24">
		<path stroke="none" d="M0 0h24v24H0z" fill="none"/>
		<circle cx="10" cy="10" r="7" />
		<line x1="21" y1="21" x2="15" y2="15" />
	</symbol>

	<symbol id="icon-x" xmlns="http://www.w3.org/2000/svg" viewBox="0 0 24 24">
		<path stroke="none" d="M0 0h24v24H0z" fill="none"/>
		<line x1="18" y1="6" x2="6" y2="18" />
		<line x1="6" y1="6" x2="18" y2="18" />
	</symbol>

	<symbol id="icon-download" xmlns="http://www.w3.org/2000/svg" viewBox="0 0 24 24">
		<path stroke="none" d="M0 0h24v24H0z" fill="none"/>
		<line x1="4" y1="20" x2="20" y2="20" />
		<line x1="12" y1="14" x2="12" y2="4" />
		<line x1="12" y1="14" x2="16" y2="10" />
		<line x1="12" y1="14" x2="8" y2="10" />
	</symbol>

	<symbol id="icon-arrow-down" xmlns="http://www.w3.org/2000/svg" viewBox="0 0 24 24">
		<path stroke="none" d="M0 0h24v24H0z" fill="none"/>
		<line x1="12" y1="5" x2="12" y2="19" />
		<line x1="18" y1="13" x2="12" y2="19" />
		<line x1="6" y1="13" x2="12" y2="19" />
	</symbol>
</svg>